%YAML 1.1
%TAG !u! tag:unity3d.com,2011:
--- !u!1045 &1
EditorBuildSettings:
  m_ObjectHideFlags: 0
  serializedVersion: 2
  m_Scenes:
  - enabled: 1
    path: Assets/Scenes/Menu.unity
    guid: bb831453c542342419480400fc1e1c75
  - enabled: 1
    path: Assets/Scenes/GamePlay.unity
    guid: 7502eb20e705eb540bf28b53834e8375
